[Summary],,,,,,,,,
Channel: 1,,,,,,,,,
Cell: Channel_Test-01,,,,,,,,,
Serial Number: Enter cell ID...,,,,,,,,,
Experiment Number: Enter cell description...,,,,,,,,,
Description: Description,,,,,,,,,
Protocol: C:\Protocols\Channel_Test.pro,,,,,,,,,
Mass (g): 1.000,,,,,,,,,
Capacity (Ah): 1.000,,,,,,,,,
Area (cm^2): 1.000,,,,,,,,,
DC Offset Voltage (V): 0.000000,,,,,,,,,
Started: 11/17/2017 7:20:23 PM,,,,,,,,,
Version: 1.9.2.6,,,,,,,,,
[End Summary],,,,,,,,,
[Data],,,,,,,,,
